<svg width="288" height="62" viewBox="0 0 288 62" fill="none" xmlns="http://www.w3.org/2000/svg">
<path d="M170.755 42.6256C168.228 43.9469 165.686 44.6148 163.195 44.6148C159.574 44.6148 156.844 43.4257 155.078 41.0694C153.296 38.6912 152.391 35.2852 152.391 30.947C152.391 26.5648 153.274 23.0341 155.012 20.465C156.721 17.9325 159.422 16.6406 163.036 16.6406C164.926 16.6406 167.38 17.2058 170.328 18.3289L170.675 18.461L172.073 12.9998L171.797 12.8823C168.872 11.6271 165.91 10.9885 162.985 10.9885C157.561 10.9885 153.354 12.8456 150.494 16.5012C147.648 20.1346 146.207 25.016 146.207 31.0058C146.207 36.9001 147.67 41.6273 150.552 45.0626C153.441 48.5199 157.626 50.2743 162.985 50.2743C166.359 50.2743 169.437 49.5476 172.131 48.1015L172.362 47.9767L171.139 42.4274L170.755 42.6256Z" fill="#141FD2"/>
<path d="M189.778 44.5415C188.627 45.1874 187.07 45.5178 185.158 45.5178C181.776 45.5178 180.133 44.2332 180.133 41.6053C180.133 38.8307 181.827 37.48 185.317 37.48C186.766 37.48 188.272 37.6709 189.785 38.0453V44.5415H189.778ZM184.644 21.2725C181.414 21.2725 178.554 21.801 176.136 22.8433L175.868 22.9608L177.048 27.9596L177.41 27.8054C179.43 26.9392 181.697 26.4988 184.123 26.4988C187.917 26.4988 189.764 28.2679 189.764 31.9013V33.7071C188.192 33.3768 186.483 33.2079 184.68 33.2079C181.588 33.2079 179.068 33.9493 177.178 35.4027C175.259 36.8855 174.289 39.0435 174.289 41.8109C174.289 44.3286 175.209 46.3913 177.019 47.9401C178.808 49.4816 181.385 50.2597 184.687 50.2597C188.945 50.2597 192.53 49.4229 195.325 47.7639L195.491 47.6612V32.1729C195.491 28.6789 194.564 25.963 192.732 24.0912C190.922 22.2194 188.192 21.2725 184.644 21.2725Z" fill="#141FD2"/>
<path d="M215.897 35.3734C215.897 41.8769 213.449 45.0406 208.417 45.0406C207.128 45.0406 205.752 44.6883 204.304 43.9983V27.4971C205.723 26.8365 207.193 26.5062 208.663 26.5062C211.132 26.5062 212.906 27.2769 214.094 28.8771C215.289 30.47 215.897 32.6574 215.897 35.3734ZM208.924 21.2725C205.281 21.2725 201.827 22.0872 198.663 23.7021L198.475 23.7976V59.5379H204.304V49.3201C205.803 49.9147 207.425 50.2156 209.126 50.2156C213.196 50.2156 216.382 48.8283 218.598 46.0977C220.807 43.3817 221.922 39.7189 221.922 35.2119C221.922 30.9838 220.77 27.5705 218.511 25.0601C216.252 22.5423 213.022 21.2725 208.924 21.2725Z" fill="#141FD2"/>
<path d="M227.859 10.7241C226.787 10.7241 225.918 11.0544 225.274 11.7004C224.63 12.3537 224.304 13.2199 224.304 14.2695C224.304 15.3559 224.622 16.2441 225.245 16.9121C225.868 17.5874 226.744 17.925 227.859 17.925C228.938 17.925 229.8 17.5874 230.423 16.9121C231.045 16.2441 231.357 15.3559 231.357 14.2695C231.357 13.2199 231.038 12.361 230.415 11.7077C229.8 11.0471 228.938 10.7241 227.859 10.7241Z" fill="#141FD2"/>
<path d="M230.799 21.9109H224.97V49.6282H230.799V21.9109Z" fill="#141FD2"/>
<path d="M249.583 44.6809C248.729 44.9232 247.766 45.0406 246.709 45.0406C244.254 45.0406 243.059 43.5358 243.059 40.4308V26.9833H249.446V21.911H243.059V15.7451H237.237V21.911H233.559V26.9833H237.237V40.4896C237.237 46.9785 240.134 50.267 245.847 50.267C247.259 50.267 248.678 50.0835 250.061 49.7238L250.336 49.6504L249.982 44.5635L249.583 44.6809Z" fill="#141FD2"/>
<path d="M267.991 44.5415C266.839 45.1874 265.282 45.5178 263.371 45.5178C259.989 45.5178 258.345 44.2332 258.345 41.6053C258.345 38.8307 260.04 37.48 263.53 37.48C264.978 37.48 266.484 37.6709 267.998 38.0453V44.5415H267.991ZM262.864 21.2725C259.634 21.2725 256.774 21.801 254.355 22.8433L254.087 22.9608L255.268 27.9596L255.63 27.8054C257.65 26.9392 259.917 26.4988 262.342 26.4988C266.137 26.4988 267.983 28.2679 267.983 31.9013V33.7071C266.405 33.3768 264.703 33.2079 262.907 33.2079C259.815 33.2079 257.288 33.9493 255.405 35.4027C253.486 36.8928 252.509 39.0509 252.509 41.8109C252.509 44.3286 253.428 46.3913 255.239 47.9401C257.027 49.4816 259.605 50.2597 262.907 50.2597C267.172 50.2597 270.749 49.4229 273.545 47.7639L273.711 47.6612V32.1729C273.711 28.6789 272.784 25.963 270.959 24.0912C269.135 22.2194 266.412 21.2725 262.864 21.2725Z" fill="#141FD2"/>
<path d="M287.454 44.6955L286.607 44.8937C286.223 44.9965 285.753 45.0405 285.209 45.0405C284.196 45.0405 283.5 44.7175 283.088 44.0569C282.653 43.3522 282.429 42.2071 282.429 40.6436V11.5757L276.6 11.583V40.695C276.6 47.0444 279.149 50.2669 284.188 50.2669C285.188 50.2669 286.201 50.1347 287.179 49.8852L287.461 49.8118V44.6955H287.454Z" fill="#141FD2"/>
<path d="M123.883 18.4758C123.094 18.4758 121.016 18.4464 119.785 18.6813V26.1465L120.096 26.1832C120.111 26.1832 121.805 26.33 123.76 26.33C126.932 26.33 128.764 26.0804 129.886 25.0528C131.009 24.0251 131.291 22.3295 130.596 20.8688C129.502 18.5859 126.07 18.4758 123.883 18.4758ZM119.792 42.1119C121.624 42.2293 123.608 42.3174 125.599 42.244C127.142 42.1853 129.191 42.0605 130.639 40.5116C131.935 39.1243 132.174 37.047 131.204 35.3367C130.306 33.7511 128.51 32.9731 124.166 33.0245C121.972 33.0245 119.85 33.2667 119.77 33.2814L119.792 42.1119ZM123.442 49.9661C118.858 49.9661 114.571 49.856 111.226 49.6651V11.5979C112.391 11.4951 115.998 11.4143 121.095 11.2749C124.296 11.1941 127.352 11.3263 129.741 11.7153C135.158 12.6108 137.135 15.3121 137.982 16.7948C138.8 18.2262 139.343 19.8191 139.213 21.8891C139.061 24.3187 138.308 26.308 135.925 28.2679L135.505 28.6129L135.983 28.8624C137.627 29.7286 138.684 31.1013 139.401 32.4519C140.263 34.0815 140.705 35.9386 140.705 37.9645C140.705 42.0678 139.293 45.1728 136.425 47.2501C133.898 49.1072 130.35 49.9661 123.442 49.9661Z" fill="#141FD2"/>
<path d="M102.891 11.583H94.4187C93.6584 13.2126 88.3796 24.5828 85.961 31.0717L85.7945 31.5195H85.512L85.3455 31.0717C82.9269 24.5828 77.6481 13.2126 76.895 11.583H68.4228C66.5908 25.3316 65.6856 46.5967 65.5625 49.6429H73.9985C74.0782 47.0958 74.5851 31.0497 74.9326 27.4456L75.0195 26.5354H75.2295L75.5699 27.3355C78.3867 34.0299 82.0073 43.2348 82.6011 44.7542H88.7199C89.3137 43.2274 92.9415 34.0299 95.7584 27.3355L96.0987 26.5354H96.3087L96.3956 27.4456C96.7432 31.0497 97.2501 47.0958 97.3297 49.6429H105.766C105.628 46.5967 104.723 25.3316 102.891 11.583Z" fill="#141FD2"/>
<path d="M12.3464 18.6665C12.3681 18.6738 22.8027 23.4011 22.8244 23.4157C23.4399 23.6947 24.1279 23.8341 24.8375 23.7167C26.7202 23.4084 28.0091 21.5586 27.7123 19.5914C27.4878 18.094 26.4088 16.9562 25.0765 16.6406C25.0547 16.6332 13.896 14.0494 13.8743 14.0421C13.5702 13.9613 13.2516 13.9393 12.9257 13.998C11.644 14.2109 10.7678 15.4661 10.9706 16.802C11.0937 17.6609 11.644 18.3288 12.3464 18.6665Z" fill="#EB2E4A"/>
<path d="M25.1563 10.8857C24.7653 11.5684 24.6132 12.3978 24.8666 13.2126C25.3083 14.644 26.7856 15.4294 28.1541 14.9596C28.6103 14.8055 28.9941 14.5339 29.291 14.1889C29.3055 14.1669 35.8226 6.27596 35.8371 6.25394C36.6409 5.27767 37.0246 3.9564 36.6191 2.65715C36.0326 0.763333 34.0775 -0.271661 32.2599 0.344932C31.4489 0.623866 30.7899 1.1744 30.3844 1.88641C30.2758 2.07726 25.1635 10.8637 25.1563 10.8857Z" fill="#EB2E4A"/>
<path d="M43.9617 23.9735C43.2159 23.79 42.4121 23.9001 41.7531 24.4066C40.5873 25.2948 40.3338 26.9977 41.1811 28.2162C41.4635 28.62 41.8328 28.9136 42.2383 29.0971C42.26 29.1118 51.4781 33.1196 51.4998 33.127C52.6367 33.6261 53.9618 33.5894 55.019 32.782C56.5614 31.6075 56.9017 29.354 55.7721 27.7465C55.2652 27.0271 54.5628 26.55 53.788 26.3665C53.5853 26.3224 43.9907 23.9808 43.9617 23.9735Z" fill="#EB2E4A"/>
<path d="M37.8646 46.6555C37.7994 45.8627 37.4518 45.0993 36.7929 44.5928C35.6271 43.712 33.9905 43.9762 33.1433 45.1948C32.8609 45.5985 32.7089 46.0536 32.6654 46.516C32.6582 46.5454 31.8399 56.9247 31.8327 56.9541C31.7313 58.2386 32.1658 59.5379 33.2302 60.3453C34.7726 61.5124 36.9377 61.1601 38.0601 59.5452C38.5597 58.8259 38.777 57.9744 38.7046 57.1522C38.6828 56.9247 37.8646 46.6848 37.8646 46.6555Z" fill="#EB2E4A"/>
<path d="M15.2719 47.6538C15.9743 47.3455 16.5681 46.7656 16.8216 45.9509C17.2705 44.5195 16.5174 42.978 15.1488 42.5156C14.6926 42.3614 14.2292 42.3467 13.7947 42.4421C13.773 42.4495 4.04805 44.8278 4.02633 44.8351C2.82428 45.1287 1.77431 45.9655 1.36156 47.2648C0.767778 49.1586 1.75983 51.1919 3.57737 51.8085C4.38839 52.0874 5.23561 52.036 5.95973 51.7131C6.16248 51.625 15.2502 47.6612 15.2719 47.6538Z" fill="#EB2E4A"/>
<path d="M7.41501 25.5151C7.91465 26.117 8.62429 26.5207 9.44255 26.5207C10.8835 26.5207 12.0566 25.2948 12.0566 23.7901C12.0566 23.2909 11.9263 22.8285 11.7018 22.4247C11.6946 22.4027 6.50261 13.4988 6.49537 13.4768C5.85814 12.3758 4.76472 11.5903 3.45406 11.5903C1.54238 11.5903 0 13.2052 0 15.2018C0 16.0973 0.304131 16.9121 0.825499 17.536C0.970323 17.7122 7.40052 25.5004 7.41501 25.5151Z" fill="#EB2E4A"/>
<path d="M32.9251 13.6604C32.9179 13.6897 31.8317 25.5004 31.8317 25.5298C31.7665 26.2271 31.8534 26.9538 32.1793 27.6218C33.0482 29.3982 35.1264 30.1028 36.8281 29.2C38.1243 28.5173 38.8267 27.0933 38.7036 25.6692C38.7036 25.6472 37.6174 13.7705 37.6102 13.7485C37.5885 13.4255 37.5088 13.0952 37.3567 12.7942C36.7702 11.583 35.3509 11.1059 34.1923 11.7225C33.4537 12.1042 33.012 12.8529 32.9251 13.6604Z" fill="#EB2E4A"/>
<path d="M43.8383 32.5251C43.8093 32.5324 32.7086 35.1089 32.6868 35.1162C32.0279 35.2704 31.3979 35.5787 30.891 36.1072C29.5441 37.5165 29.5441 39.7994 30.891 41.2087C31.9193 42.2804 33.4327 42.5374 34.6854 41.9721C34.7071 41.9648 45.1924 37.2082 45.2141 37.1936C45.5038 37.0761 45.7717 36.8926 46.0107 36.6504C46.9303 35.6888 46.9303 34.14 46.0107 33.1784C45.4169 32.5691 44.5986 32.3636 43.8383 32.5251Z" fill="#EB2E4A"/>
<path d="M30.0222 49.1953C30.0077 49.1733 24.2364 38.9481 24.2219 38.9261C23.8816 38.3168 23.4037 37.7883 22.7592 37.4507C21.0575 36.5478 18.9793 37.2525 18.1104 39.0215C17.4514 40.3721 17.6759 41.9503 18.581 43.0294C18.5955 43.0514 26.1626 51.9846 26.1771 52.0067C26.3726 52.2562 26.626 52.4691 26.9229 52.6306C28.0815 53.2472 29.4935 52.7627 30.0873 51.5589C30.4711 50.7808 30.4059 49.9073 30.0222 49.1953Z" fill="#EB2E4A"/>
<path d="M10.5579 40.6364C10.5724 40.6143 18.1105 31.7325 18.1322 31.7105C18.5812 31.182 18.9215 30.5507 19.0301 29.802C19.327 27.8347 18.0453 25.985 16.1626 25.6693C14.7288 25.4344 13.3602 26.1464 12.6578 27.3723C12.6434 27.3943 6.83591 37.6635 6.82143 37.6855C6.65488 37.9571 6.53902 38.2728 6.48833 38.6178C6.28558 39.9537 7.15452 41.2163 8.44346 41.4218C9.25448 41.5686 10.0293 41.2309 10.5579 40.6364Z" fill="#EB2E4A"/>
</svg>
