<svg width="66" height="69" viewBox="0 0 66 69" fill="none" xmlns="http://www.w3.org/2000/svg">
<path d="M31.6557 1.49824C32.0291 1.17693 32.5071 1 33.0017 1C33.4963 1 33.9743 1.17693 34.3478 1.49824L41.0113 7.23082C41.2188 7.40954 41.4605 7.54513 41.722 7.62952C41.9835 7.71391 42.2594 7.74539 42.5335 7.72209L51.3315 6.96316C51.824 6.92126 52.3153 7.05688 52.715 7.34507C53.1147 7.63327 53.396 8.05468 53.507 8.53183L55.4979 17.0494C55.5593 17.3156 55.6743 17.5667 55.8359 17.7879C55.9975 18.0091 56.2025 18.1958 56.4386 18.3368L64.0051 22.843C64.4285 23.0955 64.7457 23.4908 64.8984 23.9564C65.0511 24.422 65.0291 24.9265 64.8363 25.3772L61.3883 33.4272C61.281 33.678 61.2258 33.9477 61.2258 34.22C61.2258 34.4924 61.281 34.762 61.3883 35.0128L64.8363 43.0628C65.03 43.514 65.0526 44.0193 64.8998 44.4856C64.7471 44.9519 64.4293 45.3479 64.0051 45.6005L56.4386 50.1066C56.2029 50.2473 55.9981 50.4334 55.8365 50.654C55.6749 50.8746 55.5597 51.1251 55.4979 51.3907L53.507 59.9082C53.396 60.3854 53.1147 60.8068 52.715 61.095C52.3153 61.3832 51.824 61.5188 51.3315 61.4769L42.5335 60.718C42.2597 60.6942 41.9839 60.7252 41.7224 60.809C41.4609 60.8928 41.2191 61.0277 41.0113 61.2059L34.3443 66.9418C33.9709 67.2631 33.4929 67.4401 32.9983 67.4401C32.5037 67.4401 32.0257 67.2631 31.6522 66.9418L24.9887 61.2059C24.7809 61.0277 24.5391 60.8928 24.2776 60.809C24.0161 60.7252 23.7403 60.6942 23.4665 60.718L14.6685 61.4769C14.176 61.5188 13.6847 61.3832 13.285 61.095C12.8853 60.8068 12.604 60.3854 12.493 59.9082L10.5021 51.3907C10.4407 51.1245 10.3257 50.8733 10.1641 50.6521C10.0025 50.4309 9.7975 50.2442 9.56144 50.1032L1.99488 45.5971C1.57148 45.3446 1.25428 44.9492 1.10158 44.4837C0.948875 44.0181 0.970917 43.5136 1.16365 43.0628L4.61171 35.0128C4.71896 34.762 4.77423 34.4924 4.77423 34.22C4.77423 33.9477 4.71896 33.678 4.61171 33.4272L1.16365 25.3772C0.96997 24.9261 0.947425 24.4208 1.10017 23.9544C1.25292 23.4881 1.57067 23.0922 1.99488 22.8396L9.56144 18.3335C9.79714 18.1928 10.0019 18.0067 10.1635 17.7861C10.3251 17.5655 10.4402 17.315 10.5021 17.0494L12.493 8.53183C12.604 8.05468 12.8853 7.63327 13.285 7.34507C13.6847 7.05688 14.176 6.92126 14.6685 6.96316L23.4665 7.72209C23.7406 7.74539 24.0165 7.71391 24.278 7.62952C24.5395 7.54513 24.7812 7.40954 24.9887 7.23082L31.6557 1.49824V1.49824Z" stroke="#EA2F4B" stroke-width="2"/>
<path d="M22.7378 37.6075L29.5792 44.3835L46.6826 27.4434" stroke="#EA2F4B" stroke-width="2" stroke-linecap="round" stroke-linejoin="round"/>
</svg>
