<svg width="28" height="28" viewBox="0 0 28 28" fill="none" xmlns="http://www.w3.org/2000/svg">
<g clip-path="url(#clip0_1304:50185)">
<path d="M18.125 15.3875H19.7321L20.375 12.6875H18.125V11.3375C18.125 10.6423 18.125 9.9875 19.4107 9.9875H20.375V7.7195C20.1654 7.69048 19.3741 7.625 18.5384 7.625C16.793 7.625 15.5536 8.74347 15.5536 10.7975V12.6875H13.625V15.3875H15.5536V21.125H18.125V15.3875Z" fill="url(#paint0_linear_1304:50185)"/>
</g>
<path d="M14 27.4375C6.57867 27.4375 0.5625 21.4213 0.5625 14H-0.5625C-0.5625 22.0426 5.95735 28.5625 14 28.5625V27.4375ZM27.4375 14C27.4375 21.4213 21.4213 27.4375 14 27.4375V28.5625C22.0426 28.5625 28.5625 22.0426 28.5625 14H27.4375ZM14 0.5625C21.4213 0.5625 27.4375 6.57867 27.4375 14H28.5625C28.5625 5.95735 22.0426 -0.5625 14 -0.5625V0.5625ZM14 -0.5625C5.95735 -0.5625 -0.5625 5.95735 -0.5625 14H0.5625C0.5625 6.57867 6.57867 0.5625 14 0.5625V-0.5625Z" fill="url(#paint1_linear_1304:50185)"/>
<defs>
<linearGradient id="paint0_linear_1304:50185" x1="5.22749" y1="14.3822" x2="158.713" y2="14.3822" gradientUnits="userSpaceOnUse">
<stop stop-color="#DDB996"/>
<stop offset="0.0001" stop-color="#DDB996"/>
<stop offset="0.6466" stop-color="#B28D6D"/>
<stop offset="1" stop-color="#A37E5F"/>
</linearGradient>
<linearGradient id="paint1_linear_1304:50185" x1="-34.8341" y1="14.0149" x2="601.847" y2="14.0149" gradientUnits="userSpaceOnUse">
<stop stop-color="#DDB996"/>
<stop offset="0.0001" stop-color="#DDB996"/>
<stop offset="0.6466" stop-color="#B28D6D"/>
<stop offset="1" stop-color="#A37E5F"/>
</linearGradient>
<clipPath id="clip0_1304:50185">
<rect width="16" height="16" fill="white" transform="translate(5.625 5.625)"/>
</clipPath>
</defs>
</svg>
